<?xml version="1.0" encoding="utf-8"?>
<!-- Generator: Adobe Illustrator 16.0.0, SVG Export Plug-In . SVG Version: 6.00 Build 0)  -->
<!DOCTYPE svg PUBLIC "-//W3C//DTD SVG 1.1//EN" "http://www.w3.org/Graphics/SVG/1.1/DTD/svg11.dtd">
<svg version="1.1" id="Layer_1" xmlns="http://www.w3.org/2000/svg" xmlns:xlink="http://www.w3.org/1999/xlink" x="0px" y="0px"
	 width="120px" height="120px" viewBox="0 0 120 120" enable-background="new 0 0 120 120" xml:space="preserve">
<g>
	<path fill="#005EB8" d="M74.121,40.885H46.064C33.605,52.04,24.888,75.681,24.888,90.695c0,20.194,15.76,18.041,35.206,18.041
		S95.3,110.889,95.3,90.695C95.3,75.681,86.582,52.04,74.121,40.885z M69.736,68.207h-6.933c0-1.522-0.294-2.656-0.88-3.404
		c-0.588-0.746-1.368-1.12-2.346-1.12c-0.991,0-1.725,0.308-2.199,0.921c-0.475,0.615-0.712,1.396-0.712,2.346
		c0,0.963,0.255,1.746,0.765,2.346c0.509,0.602,1.462,1.209,2.858,1.822c3.239,1.383,5.621,2.762,7.143,4.137
		c1.521,1.375,2.282,3.34,2.282,5.896c0,2.43-0.766,4.385-2.293,5.865c-1.529,1.479-3.586,2.354-6.168,2.617v4.209h-3.331v-4.229
		c-2.709-0.266-4.957-1.211-6.744-2.838c-1.788-1.626-2.653-4.011-2.598-7.151l0.063-0.125h6.891c0,1.73,0.377,2.978,1.131,3.737
		c0.754,0.761,1.731,1.142,2.932,1.142c1.006,0,1.767-0.293,2.282-0.879c0.517-0.586,0.775-1.354,0.775-2.305
		c0-1.104-0.266-1.958-0.796-2.564c-0.53-0.607-1.474-1.205-2.828-1.791c-3.295-1.313-5.693-2.643-7.194-3.99
		s-2.251-3.327-2.251-5.938c0-2.359,0.796-4.305,2.388-5.834c1.592-1.529,3.714-2.418,6.367-2.669v-4.419h3.33v4.503
		c2.514,0.363,4.504,1.396,5.97,3.099c1.466,1.705,2.178,3.875,2.137,6.515L69.736,68.207z"/>
	<path fill="#005EB8" d="M74.121,28.537c0,0,11.121-11.909,6.092-17.118c-5.028-5.209-16.188,5.789-20.118,5.403
		c-3.93,0.386-15.088-10.612-20.117-5.403s6.088,17.118,6.088,17.118H74.121z"/>
	<path fill="#005EB8" d="M72.667,31.624H47.521c-1.393,0-2.516,1.381-2.516,3.087c0,1.707,1.123,3.087,2.516,3.087h25.146
		c1.389,0,2.516-1.381,2.516-3.087C75.184,33.005,74.057,31.624,72.667,31.624z"/>
</g>
<g>
	<g>
		<path fill="#005EB8" d="M77.49,31.624h19.049c1.392,0,2.515,1.381,2.515,3.087c0,1.707-1.123,3.087-2.515,3.087H77.49
			c1.393,0,2.516-1.381,2.516-3.087S78.882,31.624,77.49,31.624z"/>
		<path fill="#005EB8" d="M97.996,28.537H78.947c0,0,6.242-6.687,7.254-12.23c4.934-2.061,13.613-9.309,17.881-4.888
			C109.113,16.628,97.996,28.537,97.996,28.537z"/>
		<path fill="#005EB8" d="M74.441,108.8c-0.91,0.002-1.809-0.002-2.688-0.014C72.664,108.794,73.559,108.8,74.441,108.8z"/>
	</g>
	<path fill="#005EB8" d="M97.996,40.885H78.947c7.674,6.87,13.922,18.475,17.596,29.884c0.205-0.447,0.351-0.773,0.435-0.977
		l4.53-9.96c0.125-0.3,0.354-0.451,0.688-0.451h4.53c0.269,0,0.481,0.126,0.642,0.38c0.141,0.221,0.148,0.466,0.022,0.735
		l-7.425,13.733h5.101c0.205,0,0.383,0.075,0.533,0.226c0.149,0.15,0.226,0.328,0.226,0.533v2.467c0,0.221-0.074,0.403-0.226,0.545
		c-0.15,0.143-0.328,0.213-0.533,0.213H98.58c0.152,0.679,0.291,1.35,0.42,2.017h6.064c0.205,0,0.383,0.075,0.533,0.226
		c0.15,0.149,0.226,0.328,0.226,0.533v2.443c0,0.222-0.075,0.402-0.226,0.546c-0.151,0.144-0.328,0.213-0.533,0.213h-5.411
		c0.306,2.29,0.47,4.478,0.47,6.505c0,12.327-5.873,16.324-14.869,17.571c0.05,0.153,0.091,0.313,0.129,0.476
		c18.785,0.088,33.789,1.653,33.789-18.047C119.171,75.681,110.453,52.04,97.996,40.885z"/>
</g>
<g>
	<g>
		<path fill="#005EB8" d="M42.508,31.624H23.46c-1.391,0-2.515,1.381-2.515,3.087c0,1.707,1.124,3.087,2.515,3.087h19.047
			c-1.391,0-2.514-1.381-2.514-3.087C39.994,33.005,41.117,31.624,42.508,31.624z"/>
		<path fill="#005EB8" d="M22.004,28.537h19.047c0,0-6.24-6.687-7.254-12.23c-4.933-2.061-13.613-9.309-17.88-4.888
			C10.886,16.628,22.004,28.537,22.004,28.537z"/>
		<path fill="#005EB8" d="M45.559,108.8c0.908,0.002,1.807-0.002,2.686-0.014C47.334,108.794,46.439,108.8,45.559,108.8z"/>
	</g>
	<g>
		<path fill="#005EB8" d="M26.048,63.255c-0.321-0.215-0.85-0.459-1.584-0.735c-0.734-0.276-1.446-0.414-2.136-0.414
			c-1.3,0-2.35,0.36-3.146,1.079c-0.796,0.721-1.194,1.662-1.194,2.824v4.938h5.411c0.811-2.535,1.75-5.082,2.804-7.585
			C26.148,63.326,26.112,63.296,26.048,63.255z"/>
		<path fill="#005EB8" d="M41.051,40.885H22.004C9.546,52.04,0.828,75.681,0.828,90.695c0,19.7,15.002,18.135,33.79,18.047
			c0.037-0.16,0.08-0.32,0.129-0.476c-8.998-1.247-14.871-5.244-14.871-17.571c0-0.511,0.012-1.033,0.032-1.563H9.997
			c-0.214,0-0.39-0.069-0.527-0.207c-0.139-0.139-0.207-0.313-0.207-0.527v-3.445c0-0.197,0.073-0.369,0.218-0.517
			c0.145-0.146,0.317-0.22,0.516-0.22h2.228v-8.793h-2.182c-0.214,0-0.391-0.072-0.528-0.217c-0.138-0.146-0.207-0.318-0.207-0.518
			v-3.008c0-0.215,0.069-0.391,0.207-0.528c0.138-0.138,0.314-0.207,0.528-0.207h2.182v-5.12c0-2.619,0.944-4.777,2.836-6.477
			c1.89-1.699,4.298-2.548,7.221-2.548c2.203,0,4.241,0.586,6.119,1.744C31.84,51.585,36.154,45.27,41.051,40.885z"/>
		<path fill="#005EB8" d="M17.988,84.128h2.366c0.374-2.779,0.963-5.709,1.746-8.705h-4.112V84.128z"/>
	</g>
</g>
</svg>
