<?xml version="1.0" encoding="utf-8"?>
<!-- Generator: Adobe Illustrator 16.0.0, SVG Export Plug-In . SVG Version: 6.00 Build 0)  -->
<!DOCTYPE svg PUBLIC "-//W3C//DTD SVG 1.1//EN" "http://www.w3.org/Graphics/SVG/1.1/DTD/svg11.dtd">
<svg version="1.1" id="Layer_1" xmlns="http://www.w3.org/2000/svg" xmlns:xlink="http://www.w3.org/1999/xlink" x="0px" y="0px"
	 width="120px" height="120px" viewBox="0 0 120 120" enable-background="new 0 0 120 120" xml:space="preserve">
<path fill="#005EB8" d="M87.767,9.505c-11.495,0-21.533,6.104-27.141,15.227C55.021,15.61,44.979,9.505,33.483,9.505
	c-17.601,0-31.867,14.269-31.867,31.871c0,9.583,4.246,18.157,10.939,23.995l45.163,45.166c0.771,0.771,1.817,1.205,2.909,1.205
	c1.09,0,2.138-0.435,2.906-1.205l45.163-45.166c6.694-5.837,10.94-14.412,10.94-23.995C119.638,23.774,105.369,9.505,87.767,9.505z
	 M96.488,66.921H84.137c-1.173,0-2.222-0.729-2.634-1.828l-3.83-10.274l-5.478,12.787c-0.472,1.101-1.606,1.772-2.78,1.694
	c-1.196-0.086-2.203-0.918-2.513-2.074l-5.478-20.398l-7.898,41.011c-0.248,1.291-1.361,2.238-2.678,2.275
	c-0.026,0.002-0.055,0.002-0.082,0.002c-1.28,0-2.405-0.871-2.722-2.123l-6.434-25.449l-1.559,4.154
	c-0.41,1.098-1.458,1.825-2.629,1.825h-12.56c-1.552,0-2.808-1.258-2.808-2.808c0-1.553,1.256-2.811,2.808-2.811h10.616
	l4.027-10.736c0.431-1.149,1.552-1.872,2.786-1.819c1.226,0.069,2.265,0.926,2.567,2.118l5.542,21.914l7.818-40.599
	c0.247-1.285,1.35-2.229,2.657-2.275c1.295-0.056,2.477,0.813,2.813,2.079l6.535,24.358l5.053-11.784
	c0.452-1.053,1.495-1.724,2.65-1.7c1.146,0.028,2.162,0.751,2.563,1.828l5.596,15.018h10.401c1.552,0,2.81,1.26,2.81,2.81
	C99.296,65.666,98.039,66.921,96.488,66.921z"/>
</svg>
